<svg width="34" height="41" viewBox="0 0 34 41" fill="none" xmlns="http://www.w3.org/2000/svg">
<path d="M1 39V2L5 6L9 2L13 6L17 2L21 6L25 2L29 6L33 2V39L29 35L25 39L21 35L17 39L13 35L9 39L5 35L1 39Z" stroke="#00AFEC" stroke-width="1.5"/>
<path d="M9 13H25" stroke="#00AFEC" stroke-width="1.5"/>
<path d="M12 16H22" stroke="#00AFEC" stroke-width="1.5"/>
<path d="M9 22H15" stroke="#00AFEC" stroke-width="1.5"/>
<path d="M9 25H15" stroke="#00AFEC" stroke-width="1.5"/>
<path d="M9 28H15" stroke="#00AFEC" stroke-width="1.5"/>
<path d="M19 22H25" stroke="#00AFEC" stroke-width="1.5"/>
<path d="M19 25H25" stroke="#00AFEC" stroke-width="1.5"/>
<path d="M19 28H25" stroke="#00AFEC" stroke-width="1.5"/>
</svg>
