<svg width="18" height="17" viewBox="0 0 18 17" fill="none" xmlns="http://www.w3.org/2000/svg">
<rect x="2.98962" y="0.368286" width="20" height="3" rx="1.5" transform="rotate(45 2.98962 0.368286)" fill="#152438"/>
<rect x="0.868286" y="14.5104" width="20" height="3" rx="1.5" transform="rotate(-45 0.868286 14.5104)" fill="#152438"/>
</svg>
