<svg width="12" height="12" viewBox="0 0 12 12" fill="none" xmlns="http://www.w3.org/2000/svg">
<path d="M11.8125 2.6875C11.9375 2.5625 12 2.40625 12 2.21875C12 2.03125 11.9375 1.875 11.8125 1.75L10.25 0.1875C10.125 0.0625 9.96875 0 9.78125 0C9.59375 0 9.4375 0.0625 9.3125 0.1875L8.09375 1.40625L10.5938 3.90625L11.8125 2.6875ZM0 9.5V12H2.5L9.875 4.625L7.375 2.125L0 9.5Z" fill="#929FAB"/>
</svg>
