<svg width="50" height="59" viewBox="0 0 50 59" fill="none" xmlns="http://www.w3.org/2000/svg">
<path fill-rule="evenodd" clip-rule="evenodd" d="M46.8041 14.9053C48.5692 14.9053 50 16.3154 50 18.0549V35.3061C50 42.0336 46.2481 48.2164 40.2342 51.3995L26.5838 58.6245C25.0287 59.4475 23.0912 58.8726 22.2561 57.3401C21.4208 55.8076 22.0044 53.8983 23.5593 53.0752L37.2098 45.8501C41.1499 43.7647 43.6081 39.7137 43.6081 35.3061V18.0549C43.6081 16.3154 45.0391 14.9053 46.8041 14.9053Z" fill="#FF1037"/>
<path fill-rule="evenodd" clip-rule="evenodd" d="M46.8041 1.24219C48.569 1.24219 50 2.65351 50 4.39446V18.3292C50 24.7712 46.5628 30.7377 40.9524 34.0352L26.7076 42.4079C25.1912 43.2991 23.2296 42.8092 22.326 41.3136C21.4225 39.8181 21.9191 37.8832 23.4354 36.992L37.6802 28.6195C41.3562 26.4589 43.608 22.5498 43.608 18.3292V4.39446C43.608 2.65351 45.0389 1.24219 46.8041 1.24219Z" fill="#00AFEC"/>
<path fill-rule="evenodd" clip-rule="evenodd" d="M6.41026 6.27654H46.7949C48.5649 6.27654 50 4.87149 50 3.13827C50 1.40505 48.5649 0 46.7949 0H5.76922C2.58298 0 0 2.5291 0 5.64888V35.3912C0 42.0945 3.7627 48.2552 9.79384 51.4268L23.4834 58.6259C25.043 59.4459 26.986 58.873 27.8235 57.3461C28.6612 55.8191 28.076 53.9166 26.5165 53.0965L12.8269 45.8973C8.87547 43.8194 6.41026 39.783 6.41026 35.3912V6.27654Z" fill="#152438"/>
<path fill-rule="evenodd" clip-rule="evenodd" d="M46.804 0C48.5691 0 50 1.40507 50 3.1383C50 8.40765 47.0597 12.2037 43.5887 14.7741C40.1693 17.3064 35.9741 18.8709 32.6195 19.8222C29.9886 20.5685 28.267 22.7289 28.267 24.8999V55.8617C28.267 57.595 26.8361 59 25.071 59C23.3059 59 21.875 57.595 21.875 55.8617V24.8999C21.875 19.4322 26.003 15.1659 30.8456 13.7922C33.8802 12.9315 37.2208 11.6285 39.7398 9.76299C42.2072 7.93565 43.608 5.80331 43.608 3.1383C43.608 1.40507 45.0389 0 46.804 0Z" fill="#152438"/>
</svg>
