<svg width="63" height="75" viewBox="0 0 63 75" fill="none" xmlns="http://www.w3.org/2000/svg">
<path d="M0.5 15C0.5 12.2386 2.73858 10 5.5 10H38.5L52.5 24V70C52.5 72.7614 50.2614 75 47.5 75H5.5C2.73858 75 0.5 72.7614 0.5 70V15Z" fill="#152438" fill-opacity="0.15"/>
<path d="M5.5 10C5.5 7.23858 7.73858 5 10.5 5H43.5L57.5 19V65C57.5 67.7614 55.2614 70 52.5 70H10.5C7.73858 70 5.5 67.7614 5.5 65V10Z" fill="#929FAB"/>
<path d="M10.5 5C10.5 2.23858 12.7386 0 15.5 0H48.5L62.5 14V60C62.5 62.7614 60.2614 65 57.5 65H15.5C12.7386 65 10.5 62.7614 10.5 60V5Z" fill="white"/>
<path d="M48.5 0L62.5 14H50.5C49.3954 14 48.5 13.1046 48.5 12V0Z" fill="#152438"/>
<circle cx="36.5" cy="24" r="3" fill="#152438"/>
<rect x="33.5" y="30" width="6" height="20" rx="3" fill="#152438"/>
</svg>
