<svg width="181" height="37" viewBox="0 0 181 37" fill="none" xmlns="http://www.w3.org/2000/svg">
<path d="M8.00246 7.39091C9.18125 3.02939 13.1381 5.24571e-08 17.6561 7.04964e-08L163.344 6.52192e-07C167.862 6.70231e-07 171.819 3.02939 172.998 7.39091L181 37L-1.47732e-07 37L8.00246 7.39091Z" fill="url(#paint0_linear)"/>
<path d="M8.00246 7.39091C9.18125 3.02939 13.1381 5.24571e-08 17.6561 7.04964e-08L163.344 6.52192e-07C167.862 6.70231e-07 171.819 3.02939 172.998 7.39091L181 37L-1.47732e-07 37L8.00246 7.39091Z" fill="url(#paint1_linear)"/>
<defs>
<linearGradient id="paint0_linear" x1="80.5" y1="4.01272e-07" x2="80.5" y2="37" gradientUnits="userSpaceOnUse">
<stop stop-color="#D6DAE2"/>
<stop offset="1" stop-color="#CDD1DA"/>
</linearGradient>
<linearGradient id="paint1_linear" x1="-20" y1="18" x2="44.5" y2="18" gradientUnits="userSpaceOnUse">
<stop stop-opacity="0.08"/>
<stop offset="1" stop-opacity="0"/>
</linearGradient>
</defs>
</svg>
