<svg width="16" height="17" viewBox="0 0 16 17" fill="none" xmlns="http://www.w3.org/2000/svg">
<path d="M13.8203 15.3203H2.17969V6.17969H13.8203V15.3203ZM11.3203 0.320312V2H4.67969V0.320312H3V2H2.17969C1.71094 2 1.30729 2.16927 0.96875 2.50781C0.65625 2.82031 0.5 3.21094 0.5 3.67969V15.3203C0.5 15.7891 0.65625 16.1927 0.96875 16.5312C1.30729 16.8438 1.71094 17 2.17969 17H13.8203C14.2891 17 14.6797 16.8438 14.9922 16.5312C15.3307 16.1927 15.5 15.7891 15.5 15.3203V3.67969C15.5 3.21094 15.3307 2.82031 14.9922 2.50781C14.6797 2.16927 14.2891 2 13.8203 2H13V0.320312H11.3203ZM12.1797 9.5H8V13.6797H12.1797V9.5Z" fill="#929FAB"/>
</svg>
