<svg width="80" height="80" viewBox="0 0 80 80" fill="none" xmlns="http://www.w3.org/2000/svg">
<g clip-path="url(#clip0)">
<path d="M0.488281 77.155L24.8298 52.8133C19.7739 47.1997 16.6666 39.7983 16.6666 31.6666C16.6667 14.2058 30.8723 0 48.3333 0C65.7942 0 80 14.2058 80 31.6667C80 49.1277 65.7942 63.3334 48.3333 63.3334C40.2016 63.3334 32.8003 60.2261 27.1866 55.1702L2.845 79.5117C2.51953 79.8372 2.09296 80 1.66656 80C1.24015 80 0.813751 79.8372 0.488121 79.5117C-0.162811 78.8606 -0.162811 77.8059 0.488281 77.155ZM48.3333 60C63.955 60 76.6666 47.29 76.6666 31.6667C76.6666 16.0434 63.955 3.33328 48.3333 3.33328C32.7116 3.33328 20 16.0433 20 31.6667C20 47.2902 32.7116 60 48.3333 60Z" fill="#CA6DFC"/>
</g>
<defs>
<clipPath id="clip0">
<rect width="80" height="80" fill="white" transform="matrix(-1 0 0 1 80 0)"/>
</clipPath>
</defs>
</svg>
