<svg width="16" height="16" viewBox="0 0 16 16" fill="none" xmlns="http://www.w3.org/2000/svg">
<path d="M5.92969 0.5C6.89323 0.5 7.79167 0.747396 8.625 1.24219C9.45833 1.71094 10.1094 2.36198 10.5781 3.19531C11.0729 4.02865 11.3203 4.9401 11.3203 5.92969C11.3203 7.25781 10.8906 8.42969 10.0312 9.44531L10.2656 9.67969H10.9297L15.0703 13.8203L13.8203 15.0703L9.67969 10.9297V10.2656L9.44531 10.0312C8.42969 10.8906 7.25781 11.3203 5.92969 11.3203C4.9401 11.3203 4.02865 11.0859 3.19531 10.6172C2.36198 10.1224 1.69792 9.45833 1.20312 8.625C0.734375 7.79167 0.5 6.89323 0.5 5.92969C0.5 4.9401 0.734375 4.02865 1.20312 3.19531C1.69792 2.36198 2.36198 1.71094 3.19531 1.24219C4.02865 0.747396 4.9401 0.5 5.92969 0.5ZM5.92969 2.17969C4.88802 2.17969 4.0026 2.54427 3.27344 3.27344C2.54427 4.0026 2.17969 4.88802 2.17969 5.92969C2.17969 6.97135 2.54427 7.85677 3.27344 8.58594C4.0026 9.3151 4.88802 9.67969 5.92969 9.67969C6.97135 9.67969 7.85677 9.3151 8.58594 8.58594C9.3151 7.85677 9.67969 6.97135 9.67969 5.92969C9.67969 4.88802 9.3151 4.0026 8.58594 3.27344C7.85677 2.54427 6.97135 2.17969 5.92969 2.17969Z" fill="#00AFEC"/>
</svg>
