<svg width="7" height="6" viewBox="0 0 7 6" fill="none" xmlns="http://www.w3.org/2000/svg">
<path d="M2.75671 4.67412L0.502068 2.16896C-0.0771018 1.52544 0.379591 0.5 1.24536 0.5H5.75464C6.62041 0.5 7.0771 1.52544 6.49793 2.16897L4.24329 4.67412C3.84605 5.1155 3.15395 5.1155 2.75671 4.67412Z" fill="#152438"/>
</svg>
