<svg width="153" height="154" viewBox="0 0 153 154" fill="none" xmlns="http://www.w3.org/2000/svg">
<circle cx="62.943" cy="62.943" r="52.943" stroke="#CFD3DE" stroke-width="20"/>
<path d="M107.971 108.456L142.999 143.484" stroke="#CFD3DE" stroke-width="20" stroke-linecap="round"/>
</svg>
