<svg width="28" height="28" viewBox="0 0 28 28" fill="none" xmlns="http://www.w3.org/2000/svg">
  <path
    d="M13.9998 27.9715C21.716 27.9715 27.9713 21.7163 27.9713 14C27.9713 6.28381 21.716 0.0285645 13.9998 0.0285645C6.28357 0.0285645 0.0283203 6.28381 0.0283203 14C0.0283203 21.7163 6.28357 27.9715 13.9998 27.9715Z"
    fill="#FC3F1D"/>
  <path
    d="M19.0558 22.7708H15.9887V7.6015H14.6224C12.118 7.6015 10.8061 8.85372 10.8061 10.723C10.8061 12.8437 11.711 13.8263 13.5828 15.0785L15.1254 16.1182L10.6921 22.7682H7.39429L11.3843 16.8311C9.08984 15.1926 7.79873 13.593 7.79873 10.8941C7.79873 7.52113 10.1502 5.22668 14.6017 5.22668H19.035V22.7656H19.0558V22.7708Z"
    fill="white"/>
</svg>
