<svg width="261" height="37" viewBox="0 0 261 37" fill="none" xmlns="http://www.w3.org/2000/svg">
<path d="M8.00246 7.39091C9.18125 3.02939 13.1381 5.24571e-08 17.6561 7.04964e-08L243.344 9.71612e-07C247.862 9.89651e-07 251.819 3.02939 252.998 7.39091L261 37L-1.47732e-07 37L8.00246 7.39091Z" fill="#D6DAE2"/>
<path d="M8.00246 7.39091C9.18125 3.02939 13.1381 5.24571e-08 17.6561 7.04964e-08L243.344 9.71612e-07C247.862 9.89651e-07 251.819 3.02939 252.998 7.39091L261 37L-1.47732e-07 37L8.00246 7.39091Z" fill="url(#paint0_linear)"/>
<path d="M8.00246 7.39091C9.18125 3.02939 13.1381 5.24571e-08 17.6561 7.04964e-08L243.344 9.71612e-07C247.862 9.89651e-07 251.819 3.02939 252.998 7.39091L261 37L-1.47732e-07 37L8.00246 7.39091Z" fill="url(#paint1_linear)"/>
<defs>
<linearGradient id="paint0_linear" x1="120.5" y1="5.60982e-07" x2="120.5" y2="37" gradientUnits="userSpaceOnUse">
<stop stop-color="#D6DAE2"/>
<stop offset="1" stop-color="#CDD1DA"/>
</linearGradient>
<linearGradient id="paint1_linear" x1="-20" y1="18" x2="70.1716" y2="18" gradientUnits="userSpaceOnUse">
<stop stop-opacity="0.08"/>
<stop offset="1" stop-opacity="0"/>
</linearGradient>
</defs>
</svg>
