<svg width="356" height="24" viewBox="0 0 356 24" fill="none" xmlns="http://www.w3.org/2000/svg">
<rect opacity="0.15" x="172" y="1" width="1" height="22" fill="black"/>
<path fill-rule="evenodd" clip-rule="evenodd" d="M218.701 7.10632C219.295 7.10632 219.776 7.58261 219.776 8.17014V13.997C219.776 16.2692 218.514 18.3577 216.49 19.4328L211.897 21.8732C211.374 22.1511 210.722 21.9569 210.441 21.4394C210.16 20.9217 210.356 20.2768 210.879 19.9988L215.472 17.5584C216.798 16.854 217.625 15.4858 217.625 13.997V8.17014C217.625 7.58261 218.107 7.10632 218.701 7.10632Z" fill="#FF1037"/>
<path fill-rule="evenodd" clip-rule="evenodd" d="M218.701 2.42566C219.294 2.42566 219.776 2.90195 219.776 3.48948V8.19215C219.776 10.3661 218.619 12.3797 216.732 13.4926L211.939 16.3181C211.428 16.6189 210.768 16.4536 210.464 15.9488C210.16 15.4441 210.327 14.7912 210.838 14.4904L215.631 11.6649C216.867 10.9357 217.625 9.61645 217.625 8.19215V3.48948C217.625 2.90195 218.107 2.42566 218.701 2.42566Z" fill="#00AFEC"/>
<path fill-rule="evenodd" clip-rule="evenodd" d="M205.151 4.12764H218.7C219.294 4.12764 219.776 3.65135 219.776 3.06382C219.776 2.47629 219.294 2 218.7 2H204.936C203.867 2 203 2.85732 203 3.91488V13.997C203 16.2693 204.262 18.3576 206.286 19.4328L210.879 21.8732C211.402 22.1511 212.054 21.9569 212.335 21.4394C212.616 20.9217 212.42 20.2768 211.897 19.9988L207.304 17.5584C205.978 16.854 205.151 15.4858 205.151 13.997V4.12764Z" fill="#152438"/>
<path fill-rule="evenodd" clip-rule="evenodd" d="M218.7 2C219.294 2 219.776 2.47629 219.776 3.06382C219.776 4.85002 218.786 6.13681 217.619 7.00812C216.468 7.86655 215.056 8.39683 213.928 8.71934C213.043 8.97233 212.463 9.70466 212.463 10.4405V20.936C212.463 21.5235 211.982 21.9998 211.388 21.9998C210.794 21.9998 210.312 21.5235 210.312 20.936V10.4405C210.312 8.58712 211.701 7.14093 213.331 6.67527C214.352 6.38353 215.476 5.94183 216.323 5.30947C217.154 4.69003 217.625 3.9672 217.625 3.06382C217.625 2.47629 218.106 2 218.7 2Z" fill="#152438"/>
<path fill-rule="evenodd" clip-rule="evenodd" d="M229.938 5.3349V18.2174H226.467V2.33105H234.107V5.3349H229.938Z" fill="#152438"/>
<path fill-rule="evenodd" clip-rule="evenodd" d="M253.605 9.87169C252.437 12.1787 250.102 13.4949 248.243 14.1142V18.2174H244.802V2.33105H249.303C251.715 2.33105 253.559 2.82653 254.296 5.07168C254.573 5.9233 254.665 7.76587 253.605 9.87169ZM250.701 5.73749C250.44 5.31943 250.041 5.11813 249.518 5.10266H248.197V10.8626C249.272 10.491 250.148 9.73228 250.594 8.78781C251.116 7.68844 251.116 6.38781 250.701 5.72201V5.73749Z" fill="#152438"/>
<path fill-rule="evenodd" clip-rule="evenodd" d="M286.064 14.7955C285.382 17.5516 283.795 18.2174 280.987 18.2174H279.654L279.273 15.4923H280.494C281.526 15.4923 282.192 14.6562 281.859 13.6962L280.923 10.3826L278.67 2.33105H282.002L283.922 9.90262L285.54 2.33105H289.11L286.064 14.7955Z" fill="#152438"/>
<path fill-rule="evenodd" clip-rule="evenodd" d="M261.132 5.2156H259.247L259.231 5.53781C258.966 8.65252 258.67 12.3042 257.891 15.3423H261.132V5.2156ZM265.683 19.7304H262.301V18.0887H256.332L255.553 19.7304H252.951V15.3423H254.416C254.571 14.6671 254.758 13.9767 254.883 13.2862C255.242 11.6598 255.506 10.0181 255.693 8.36099C255.896 6.35101 256.099 4.35638 256.13 2.33105H264.499V15.3423H265.667V19.7304H265.683Z" fill="#152438"/>
<path fill-rule="evenodd" clip-rule="evenodd" d="M296.175 15.692H295.693H295.362L293.633 10.2807V18H290.264V2.33337H293.573L295.933 9.6569L298.295 2.33337H301.588V18H298.22V10.2807L296.49 15.692H296.175Z" fill="#152438"/>
<path fill-rule="evenodd" clip-rule="evenodd" d="M277.651 18.2174H274.229V8.95815L274.119 9.26781L270.634 18.2174H267.211V2.33105H270.618V11.2807L270.743 10.971L274.292 2.33105H277.651V18.2174Z" fill="#152438"/>
<path fill-rule="evenodd" clip-rule="evenodd" d="M240.678 18.2174L240.092 15.4923L239.965 14.811H236.763L236.636 15.4923L236.034 18.2174H232.579L236.097 2.33105H240.773L244.292 18.2174H240.694H240.678ZM239.505 12.2561L238.364 5.89233L237.223 12.2561H239.505Z" fill="#152438"/>
<path d="M277.356 4.00457C277.517 3.0402 278.351 2.33337 279.328 2.33337H352.018C353.206 2.33337 354.131 3.36333 354.005 4.54495L352.766 16.2116C352.657 17.2286 351.8 18 350.777 18H322.598L277.346 18.3167C276.105 18.3254 275.157 17.2127 275.361 15.988L277.356 4.00457Z" fill="url(#paint0_linear)"/>
<path d="M314.226 10.3771C314.226 11.0445 314.102 11.6351 313.856 12.149C313.608 12.6629 313.256 13.0592 312.799 13.3381C312.345 13.6139 311.827 13.7517 311.244 13.7517C310.662 13.7517 310.146 13.6186 309.695 13.3523C309.245 13.0827 308.892 12.6989 308.639 12.2007C308.388 11.7025 308.257 11.1307 308.244 10.4852V10.0998C308.244 9.42925 308.367 8.83861 308.611 8.32787C308.858 7.814 309.21 7.41764 309.667 7.13877C310.127 6.85989 310.65 6.72046 311.236 6.72046C311.815 6.72046 312.331 6.85833 312.785 7.13406C313.239 7.4098 313.591 7.80304 313.842 8.31377C314.095 8.82138 314.223 9.40418 314.226 10.0622V10.3771ZM312.55 10.0904C312.55 9.41045 312.436 8.89502 312.207 8.54407C311.982 8.19001 311.658 8.01297 311.236 8.01297C310.409 8.01297 309.972 8.63338 309.925 9.87418L309.921 10.3771C309.921 11.0476 310.032 11.5631 310.254 11.9234C310.476 12.2837 310.806 12.4639 311.244 12.4639C311.661 12.4639 311.982 12.2869 312.207 11.9328C312.432 11.5787 312.547 11.0696 312.55 10.4053V10.0904Z" fill="white"/>
<path d="M320.79 13.6577H319.152V10.8001H316.724V13.6577H315.076V6.81445H316.724V9.53108H319.152V6.81445H320.79V13.6577Z" fill="white"/>
<path d="M327.674 6.81445V13.6577H326.025V8.08817H324.49L324.378 10.3865C324.331 11.1792 324.22 11.8122 324.048 12.2853C323.876 12.7585 323.631 13.1047 323.311 13.324C322.995 13.5402 322.563 13.6514 322.015 13.6577H321.574V12.3887L321.805 12.3652C322.133 12.3182 322.371 12.1177 322.518 11.7636C322.665 11.4064 322.761 10.8063 322.805 9.96348L322.922 6.81445H327.674Z" fill="white"/>
<path d="M332.67 12.3793H330.411L330.017 13.6577H328.256L330.762 6.81445H332.313L334.838 13.6577H333.068L332.67 12.3793ZM330.805 11.1056H332.274L331.537 8.73207L330.805 11.1056Z" fill="white"/>
<path d="M339.351 6.81458H340.998V13.6578H339.351V9.3432L336.895 13.6578H335.247V6.81458H336.895V11.1339L339.351 6.81458ZM339.872 4.97217C339.872 5.40143 339.714 5.74924 339.398 6.01557C339.081 6.28191 338.66 6.41508 338.135 6.41508C337.609 6.41508 337.188 6.28191 336.872 6.01557C336.556 5.74924 336.398 5.40143 336.398 4.97217H337.472C337.472 5.16017 337.53 5.30743 337.647 5.41397C337.765 5.51737 337.928 5.56907 338.135 5.56907C338.341 5.56907 338.501 5.51894 338.613 5.41867C338.729 5.31527 338.788 5.16644 338.788 4.97217H339.872Z" fill="white"/>
<path d="M347.722 13.6577H346.084V10.8001H343.656V13.6577H342.008V6.81445H343.656V9.53108H346.084V6.81445H347.722V13.6577Z" fill="white"/>
<path fill-rule="evenodd" clip-rule="evenodd" d="M312.91 13.5207V13.5209C312.42 13.819 311.862 13.9656 311.244 13.9656C310.629 13.9656 310.074 13.8244 309.587 13.5365L309.586 13.5359C309.098 13.2444 308.719 12.8295 308.449 12.2978L308.448 12.2969C308.181 11.7659 308.044 11.1618 308.031 10.4894L308.031 10.4873V10.0998C308.031 9.40315 308.158 8.77996 308.418 8.23557L308.418 8.23506C308.682 7.68656 309.061 7.25789 309.556 6.95615L309.556 6.95581C310.053 6.65495 310.615 6.50658 311.236 6.50658C311.85 6.50658 312.406 6.65336 312.895 6.95123C313.387 7.24954 313.766 7.67448 314.033 8.21885C314.303 8.76003 314.437 9.37587 314.44 10.0612V10.0622V10.3771C314.44 11.0712 314.311 11.6945 314.048 12.2419C313.784 12.7904 313.405 13.219 312.91 13.5207ZM313.842 8.3138C313.591 7.80306 313.239 7.40982 312.785 7.13409C312.331 6.85836 311.815 6.72049 311.236 6.72049C310.65 6.72049 310.127 6.85992 309.667 7.1388C309.21 7.41766 308.858 7.81403 308.611 8.3279C308.367 8.83864 308.244 9.42928 308.244 10.0998V10.4852C308.257 11.1307 308.388 11.7025 308.639 12.2007C308.892 12.6989 309.245 13.0828 309.695 13.3523C310.146 13.6186 310.662 13.7517 311.244 13.7517C311.827 13.7517 312.345 13.6139 312.799 13.3382C313.256 13.0592 313.608 12.6629 313.856 12.149C314.102 11.6352 314.226 11.0445 314.226 10.3771V10.0622C314.223 9.40421 314.095 8.82141 313.842 8.3138ZM312.028 8.65997V8.65904C311.842 8.36718 311.585 8.2269 311.236 8.2269C310.884 8.2269 310.638 8.35391 310.462 8.6015C310.28 8.86222 310.162 9.27809 310.139 9.8793L310.134 10.3781C310.134 11.0295 310.243 11.499 310.436 11.8111C310.617 12.1056 310.877 12.25 311.244 12.25C311.587 12.25 311.841 12.1109 312.028 11.8179C312.222 11.5124 312.333 11.0499 312.336 10.4048V10.0904C312.336 9.42852 312.224 8.96162 312.029 8.6609L312.028 8.65997ZM312.55 10.4053C312.547 11.0696 312.433 11.5788 312.207 11.9328C311.982 12.2869 311.661 12.4639 311.244 12.4639C310.806 12.4639 310.476 12.2838 310.254 11.9234C310.032 11.5631 309.921 11.0477 309.921 10.3771L309.925 9.87421C309.972 8.63341 310.409 8.013 311.236 8.013C311.658 8.013 311.982 8.19004 312.207 8.5441C312.436 8.89504 312.55 9.41048 312.55 10.0904V10.4053ZM321.003 13.8716H318.938V11.014H316.938V13.8716H314.862V6.60058H316.938V9.3172H318.938V6.60058H321.003V13.8716ZM319.152 9.53111H316.724V6.81449H315.076V13.6577H316.724V10.8001H319.152V13.6577H320.79V6.81449H319.152V9.53111ZM327.887 6.60058V13.8716H325.811V8.3021H324.694L324.591 10.397V10.3981L324.59 10.3992C324.543 11.2021 324.432 11.8581 324.249 12.3585C324.067 12.8611 323.799 13.2493 323.432 13.5004V13.5006C323.069 13.7489 322.591 13.8651 322.019 13.8716H322.017H321.36V12.1955L321.778 12.1529C322.017 12.1174 322.198 11.977 322.321 11.6817C322.452 11.3608 322.547 10.7932 322.591 9.95396C322.591 9.95344 322.591 9.95291 322.591 9.95239L322.716 6.60058H327.887ZM322.805 9.96351C322.761 10.8064 322.665 11.4064 322.519 11.7636C322.371 12.1177 322.133 12.3182 321.805 12.3652L321.574 12.3887V13.6577H322.015C322.563 13.6514 322.995 13.5402 323.311 13.324C323.631 13.1047 323.877 12.7585 324.049 12.2853C324.221 11.8122 324.331 11.1793 324.378 10.3865L324.49 8.0882H326.025V13.6577H327.674V6.81449H322.922L322.805 9.96351ZM333.068 13.6577L332.67 12.3793H330.411L330.017 13.6577H328.256L330.763 6.81449H332.313L334.839 13.6577H333.068ZM330.568 12.5932L330.174 13.8716H327.949L330.614 6.60058H332.461L335.033 13.5683V6.60058H337.109V10.3255L339.227 6.60058H341.212V13.8716H339.137V10.1507L337.019 13.8716H332.911L332.513 12.5932H330.568ZM339.351 9.34311V13.6577H340.998V6.81449H339.351L336.895 11.1338V6.81449H335.247V13.6577H336.895L339.351 9.34311ZM332.274 11.1056L331.537 8.7321L330.805 11.1056H332.274ZM331.095 10.8917H331.985L331.538 9.45472L331.095 10.8917ZM340.086 4.75818V4.97208C340.086 5.46173 339.902 5.87043 339.536 6.17914C339.171 6.48596 338.697 6.62889 338.135 6.62889C337.573 6.62889 337.098 6.48596 336.734 6.17914C336.368 5.87043 336.184 5.46173 336.184 4.97208V4.75818H337.686V4.97208C337.686 5.11119 337.727 5.19618 337.789 5.25433C337.858 5.31354 337.965 5.35508 338.135 5.35508C338.308 5.35508 338.41 5.31315 338.471 5.25883C338.531 5.2058 338.574 5.12171 338.574 4.97208V4.75818H340.086ZM338.613 5.41858C338.501 5.51885 338.341 5.56898 338.135 5.56898C337.928 5.56898 337.765 5.51728 337.647 5.41388C337.53 5.30734 337.472 5.16008 337.472 4.97208H336.398C336.398 5.04578 336.402 5.11709 336.411 5.18599C336.456 5.51838 336.61 5.79487 336.872 6.01548C337.188 6.28182 337.609 6.41499 338.135 6.41499C338.66 6.41499 339.081 6.28182 339.398 6.01548C339.659 5.79487 339.813 5.51838 339.858 5.18599C339.867 5.11709 339.872 5.04578 339.872 4.97208H338.788C338.788 5.16635 338.729 5.31518 338.613 5.41858ZM347.936 13.8716H345.87V11.014H343.87V13.8716H341.794V6.60058H343.87V9.3172H345.87V6.60058H347.936V13.8716ZM346.084 9.53111H343.656V6.81449H342.008V13.6577H343.656V10.8001H346.084V13.6577H347.722V6.81449H346.084V9.53111Z" fill="white"/>
<path d="M94.7407 8.94543H101.755V10.1236H96.0572V12.4798H98.0649C100.945 12.4798 102.399 13.5151 102.399 15.8258C102.399 18.1034 100.862 19.2608 98.0649 19.2608H94.7407V8.94543ZM96.0572 13.6621V18.0806H98.0217C99.968 18.0806 101.023 17.4595 101.023 15.7389C101.023 14.1901 100.085 13.6683 97.9764 13.6683L96.0572 13.6621Z" fill="#21A038"/>
<path d="M104.372 19.2609V11.8918H105.588V17.3746L109.718 11.8918H110.788V19.2609H109.57V13.7326L105.588 19.0849L105.456 19.2609H104.372Z" fill="#21A038"/>
<path d="M112.686 17.0806C113.098 17.7866 114.034 18.3477 115.361 18.3477C116.371 18.3332 117.103 17.9191 117.103 17.1054C117.103 16.3227 116.502 16.0432 115.361 16.0432H114.26V15.0701H115.138C116.062 15.0701 116.72 14.716 116.72 13.8919C116.72 13.1983 116.368 12.8442 115.43 12.8153C114.907 12.8107 114.389 12.9343 113.924 13.1757C113.458 13.417 113.057 13.7687 112.756 14.2004V12.4612C113.567 11.9846 114.492 11.7404 115.43 11.7551H115.459C117.311 11.7551 117.95 12.5068 117.95 13.6704C117.95 14.6001 117.539 15.0121 116.823 15.3517C117.79 15.5422 118.316 16.0577 118.316 17.0309C118.316 18.6873 116.984 19.4182 115.358 19.4182C113.997 19.4182 113.059 18.9772 112.684 18.5196L112.686 17.0806Z" fill="#21A038"/>
<path d="M125.234 16.0785H121.367V19.2609H120.151V11.8918H121.367V14.9728H125.234V11.8918H126.45V19.2609H125.234V16.0785Z" fill="#21A038"/>
<path d="M135.085 15.2212V16.0183H129.482C129.599 17.6106 130.449 18.3477 131.885 18.3477C133.32 18.3477 134.184 17.7866 134.579 17.0784V18.5092C134.213 18.9668 133.318 19.4078 131.885 19.4078C129.571 19.4078 128.238 18.1261 128.238 15.5463C128.238 12.9664 129.791 11.7448 131.854 11.7448C133.876 11.7448 135.092 13.0409 135.092 15.2212H135.085ZM129.482 14.9727H133.861V14.9499C133.861 13.5358 132.998 12.7987 131.839 12.7987C130.463 12.7987 129.645 13.5358 129.482 14.9665" fill="#21A038"/>
<path d="M139.958 19.4078C137.644 19.4078 136.311 18.1261 136.311 15.5462C136.311 12.9664 137.864 11.7447 139.93 11.7447C140.764 11.7336 141.582 11.98 142.273 12.4508V14.19C142.035 13.7743 141.694 13.4279 141.283 13.1851C140.873 12.9422 140.406 12.8111 139.93 12.8049C138.391 12.8049 137.541 13.7325 137.541 15.5462V15.5918C137.541 17.4781 138.405 18.3477 139.958 18.3477C141.174 18.3477 141.978 17.7866 142.345 17.0805V18.5092C142.009 18.9668 141.203 19.4078 139.958 19.4078Z" fill="#21A038"/>
<path fill-rule="evenodd" clip-rule="evenodd" d="M38.8117 16.7725C39.7618 16.7725 40.6829 16.5388 41.4735 16.0976L42.1573 15.72L44.1527 17.2074C42.8371 18.6343 40.8959 19.4182 38.6726 19.4182C36.5475 19.4182 34.6094 18.659 33.2153 17.2805C31.8258 15.9068 31.0603 14.0029 31.0603 11.9201C31.0603 9.84681 31.8281 7.97071 33.2231 6.63756C34.6094 5.31156 36.5522 4.58179 38.6922 4.58179C40.6648 4.58179 42.3907 5.18834 43.6819 6.33627L43.8281 6.46584L41.6166 8.1146C40.8063 7.52553 39.8632 7.22662 38.8117 7.22662C36.0319 7.22662 34.0137 9.2339 34.0137 11.9996C34.0137 14.7652 36.0311 16.7725 38.8117 16.7725ZM53.604 10.4061H49.8513V7.17777H55.8423L59.0707 4.77063H46.7674V19.227H53.2063C56.8176 19.227 58.8892 17.5719 58.8892 14.6854C58.8892 11.9261 57.0117 10.4061 53.604 10.4061ZM53.0672 16.8199H49.8513V12.8125H53.0672C55.0249 12.8125 55.9366 13.4826 55.9366 14.8158C55.9358 16.1783 54.9707 16.8199 53.0672 16.8199ZM72.5663 4.77063L69.3378 7.17777H64.844V10.7122H71.4307V13.1193H64.844V16.8199H72.5663V19.227H61.7601V4.77063H72.5663ZM75.4372 4.77063H81.3204C85.0755 4.77063 87.4073 6.75326 87.4073 9.94424C87.4073 13.1352 85.0747 15.1322 81.3204 15.1322H78.5211V19.227H75.4372V4.77063ZM78.5211 12.725H81.2544C83.231 12.725 84.3187 11.7401 84.3187 9.95139C84.3187 8.16273 83.2302 7.17777 81.2544 7.17777H78.5211V12.725Z" fill="#21A038"/>
<path d="M2.73992 12C2.73992 11.8451 2.74384 11.6918 2.75169 11.5386L0.014917 11.4004C0.00549602 11.5989 0 11.799 0 12C0 15.3138 1.32756 18.314 3.47475 20.4852L5.41545 18.5221C3.76287 16.8513 2.73992 14.5443 2.73992 12Z" fill="url(#paint1_linear)"/>
<path d="M11.8624 2.77229C12.0155 2.77229 12.167 2.77784 12.3185 2.78499L12.4551 0.0150885C12.2589 0.00555906 12.061 0 11.8624 0C8.5863 0 5.62028 1.34286 3.47388 3.51479L5.41459 5.47786C7.06639 3.80703 9.34782 2.77229 11.8624 2.77229Z" fill="url(#paint2_linear)"/>
<path d="M11.8625 21.2285C11.7094 21.2285 11.5579 21.2245 11.4064 21.2166L11.2698 23.9849C11.466 23.9944 11.6639 24 11.8625 24C15.1386 24 18.1046 22.6571 20.251 20.4852L18.3103 18.5221C16.6585 20.1929 14.3779 21.2285 11.8625 21.2285Z" fill="url(#paint3_linear)"/>
<path d="M17.0056 4.38277L19.3129 2.6627C17.2764 0.998213 14.6849 0 11.8625 0V2.77229C13.7695 2.77229 15.5406 3.36708 17.0056 4.38277Z" fill="url(#paint4_linear)"/>
<path d="M23.7257 12C23.7257 11.2663 23.6606 10.5476 23.5357 9.85034L20.9819 11.7539C20.9842 11.8356 20.985 11.9174 20.985 12C20.985 14.7096 19.8247 17.1499 17.9797 18.8398L19.8207 20.8982C22.2192 18.7032 23.7257 15.5299 23.7257 12Z" fill="#21A038"/>
<path d="M11.8624 21.2285C9.18377 21.2285 6.77123 20.0548 5.10059 18.1886L3.06567 20.0508C5.23641 22.4761 8.37357 24 11.8624 24V21.2285Z" fill="url(#paint5_linear)"/>
<path d="M5.74519 5.16017L3.90418 3.10181C1.50656 5.29756 0 8.47088 0 12H2.7407C2.73992 9.29041 3.90026 6.85007 5.74519 5.16017Z" fill="url(#paint6_linear)"/>
<path d="M21.2504 4.66394C21.8109 5.39612 22.2898 6.19581 22.6721 7.04949L11.8624 15.1075L7.34668 12.2439V8.79894L11.8624 11.6626L21.2504 4.66394Z" fill="#21A038"/>
<defs>
<linearGradient id="paint0_linear" x1="339.973" y1="9.48667" x2="300.815" y2="9.16077" gradientUnits="userSpaceOnUse">
<stop stop-color="#00AFEC"/>
<stop offset="1" stop-color="#00AFEC" stop-opacity="0"/>
</linearGradient>
<linearGradient id="paint1_linear" x1="4.02865" y1="20.1386" x2="0.97234" y2="11.4047" gradientUnits="userSpaceOnUse">
<stop offset="0.1444" stop-color="#F2E913"/>
<stop offset="0.3037" stop-color="#E7E518"/>
<stop offset="0.5823" stop-color="#CADB26"/>
<stop offset="0.891" stop-color="#A3CD39"/>
</linearGradient>
<linearGradient id="paint2_linear" x1="4.25675" y1="4.00576" x2="11.9915" y2="1.09179" gradientUnits="userSpaceOnUse">
<stop offset="0.0592" stop-color="#0FA8E0"/>
<stop offset="0.5385" stop-color="#0099F9"/>
<stop offset="0.9234" stop-color="#0291EB"/>
</linearGradient>
<linearGradient id="paint3_linear" x1="11.0892" y1="22.3278" x2="19.8203" y2="20.377" gradientUnits="userSpaceOnUse">
<stop offset="0.1226" stop-color="#A3CD39"/>
<stop offset="0.2846" stop-color="#86C339"/>
<stop offset="0.8693" stop-color="#21A038"/>
</linearGradient>
<linearGradient id="paint4_linear" x1="11.2892" y1="0.929347" x2="18.7606" y2="3.20834" gradientUnits="userSpaceOnUse">
<stop offset="0.0566" stop-color="#0291EB"/>
<stop offset="0.79" stop-color="#0C8ACB"/>
</linearGradient>
<linearGradient id="paint5_linear" x1="3.75291" y1="19.7139" x2="11.8922" y2="22.7203" gradientUnits="userSpaceOnUse">
<stop offset="0.1324" stop-color="#F2E913"/>
<stop offset="0.2977" stop-color="#EBE716"/>
<stop offset="0.5306" stop-color="#D9E01F"/>
<stop offset="0.8023" stop-color="#BBD62D"/>
<stop offset="0.9829" stop-color="#A3CD39"/>
</linearGradient>
<linearGradient id="paint6_linear" x1="1.02014" y1="12.3362" x2="4.34382" y2="3.78858" gradientUnits="userSpaceOnUse">
<stop offset="0.0698" stop-color="#A3CD39"/>
<stop offset="0.2599" stop-color="#81C55F"/>
<stop offset="0.9216" stop-color="#0FA8E0"/>
</linearGradient>
</defs>
</svg>
