<svg width="202" height="22" viewBox="0 0 202 22" fill="none" xmlns="http://www.w3.org/2000/svg">
<path fill-rule="evenodd" clip-rule="evenodd" d="M0 21.9921V18.9891H13.8345V21.9921H0ZM4.94073 9.33592H8.78606L6.95333 3.31144H6.88121L4.94115 9.33592H4.94073ZM9.43218 2.19912L13.5113 14.9094H10.4928L9.57642 11.8884H4.1143L3.12582 14.9098H0.288061L4.56867 2.19956C4.98315 0.96668 5.46721 0 7.02503 0C8.58285 0 9.03764 0.97064 9.43218 2.19956V2.19912Z" fill="#EF3124"/>
<path fill-rule="evenodd" clip-rule="evenodd" d="M70.9824 5.85095C71.5492 5.85095 72.0085 6.30343 72.0085 6.86158V12.3971C72.0085 14.5557 70.8039 16.5397 68.8728 17.5611L64.4899 19.8795C63.9906 20.1435 63.3686 19.959 63.1004 19.4674C62.8322 18.9756 63.0196 18.3629 63.5188 18.0989L67.9018 15.7804C69.167 15.1113 69.9561 13.8115 69.9561 12.3971V6.86158C69.9561 6.30343 70.4156 5.85095 70.9824 5.85095Z" fill="#FF1037"/>
<path fill-rule="evenodd" clip-rule="evenodd" d="M70.9823 1.4043C71.5491 1.4043 72.0085 1.85677 72.0085 2.41493V6.88247C72.0085 8.94773 70.9049 10.8606 69.1035 11.9179L64.5297 14.6021C64.0428 14.8878 63.413 14.7309 63.1229 14.2513C62.8327 13.7718 62.9922 13.1515 63.479 12.8658L68.0529 10.1815C69.233 9.48886 69.9561 8.23555 69.9561 6.88247V2.41493C69.9561 1.85677 70.4156 1.4043 70.9823 1.4043Z" fill="#00AFEC"/>
<path fill-rule="evenodd" clip-rule="evenodd" d="M58.0523 3.02125H70.982C71.5488 3.02125 72.0083 2.56878 72.0083 2.01063C72.0083 1.45247 71.5488 1 70.982 1H57.8471C56.827 1 56 1.81445 56 2.81913V12.3972C56 14.5558 57.2047 16.5398 59.1356 17.5612L63.5186 19.8795C64.0179 20.1436 64.64 19.9591 64.9081 19.4674C65.1763 18.9756 64.989 18.363 64.4897 18.0989L60.1067 15.7805C58.8416 15.1113 58.0523 13.8115 58.0523 12.3972V3.02125Z" fill="#152438"/>
<path fill-rule="evenodd" clip-rule="evenodd" d="M70.9822 1C71.5489 1 72.0084 1.45247 72.0084 2.01063C72.0084 3.70752 71.0643 4.92997 69.9498 5.75771C68.8519 6.57322 67.5049 7.07699 66.4279 7.38337C65.5832 7.62372 65.0304 8.31943 65.0304 9.01851V18.9892C65.0304 19.5474 64.5709 19.9998 64.0042 19.9998C63.4375 19.9998 62.978 19.5474 62.978 18.9892V9.01851C62.978 7.25777 64.3034 5.88388 65.8583 5.44151C66.8326 5.16435 67.9052 4.74474 68.714 4.14399C69.5063 3.55553 69.956 2.86884 69.956 2.01063C69.956 1.45247 70.4154 1 70.9822 1Z" fill="#152438"/>
<path fill-rule="evenodd" clip-rule="evenodd" d="M81.7058 4.16811V16.4065H78.3936V1.31445H85.6835V4.16811H81.7058Z" fill="#152438"/>
<path fill-rule="evenodd" clip-rule="evenodd" d="M104.29 8.47805C103.176 10.6698 100.947 11.9201 99.1733 12.5085V16.4065H95.8894V1.31445H100.185C102.487 1.31445 104.246 1.78516 104.949 3.91805C105.213 4.72709 105.301 6.47752 104.29 8.47805ZM101.519 4.55057C101.27 4.15341 100.889 3.96218 100.39 3.94748H99.1293V9.41944C100.156 9.06641 100.991 8.34562 101.416 7.44837C101.915 6.40397 101.915 5.16837 101.519 4.53586V4.55057Z" fill="#152438"/>
<path fill-rule="evenodd" clip-rule="evenodd" d="M135.264 13.1557C134.613 15.7739 133.099 16.4065 130.419 16.4065H129.147L128.783 13.8177H129.949C130.933 13.8177 131.569 13.0233 131.251 12.1113L130.358 8.96344L128.208 1.31445H131.387L133.219 8.50744L134.764 1.31445H138.17L135.264 13.1557Z" fill="#152438"/>
<path fill-rule="evenodd" clip-rule="evenodd" d="M111.473 4.05477H109.673L109.658 4.36087C109.406 7.31984 109.123 10.789 108.379 13.6751H111.473V4.05477ZM115.815 17.8438H112.588V16.2842H106.892L106.149 17.8438H103.665V13.6751H105.063C105.212 13.0337 105.39 12.3778 105.509 11.7219C105.851 10.1768 106.104 8.61713 106.283 7.04289C106.476 5.13341 106.669 3.23851 106.699 1.31445H114.685V13.6751H115.8V17.8438H115.815Z" fill="#152438"/>
<path fill-rule="evenodd" clip-rule="evenodd" d="M144.911 14.0074H144.452H144.136L142.486 8.86662V16.2H139.271V1.31665H142.429L144.681 8.274L146.935 1.31665H150.077V16.2H146.863V8.86662L145.213 14.0074H144.911Z" fill="#152438"/>
<path fill-rule="evenodd" clip-rule="evenodd" d="M127.236 16.4065H123.971V7.61019L123.865 7.90437L120.539 16.4065H117.273V1.31445H120.524V9.8166L120.644 9.52241L124.03 1.31445H127.236V16.4065Z" fill="#152438"/>
<path fill-rule="evenodd" clip-rule="evenodd" d="M91.9548 16.4065L91.3952 13.8177L91.2742 13.1704H88.2188L88.0977 13.8177L87.523 16.4065H84.2256L87.5835 1.31445H92.0456L95.4035 16.4065H91.9699H91.9548ZM90.8354 10.7433L89.7465 4.69766L88.6574 10.7433H90.8354Z" fill="#152438"/>
<path d="M126.955 2.90429C127.108 1.98814 127.903 1.31665 128.836 1.31665H198.2C199.334 1.31665 200.217 2.29511 200.096 3.41764L198.914 14.501C198.81 15.4671 197.992 16.2 197.016 16.2H170.127L126.945 16.5008C125.761 16.5091 124.855 15.452 125.05 14.2885L126.955 2.90429Z" fill="url(#paint0_linear)"/>
<path d="M162.137 8.9583C162.137 9.59233 162.019 10.1534 161.784 10.6416C161.547 11.1298 161.212 11.5063 160.775 11.7713C160.342 12.0332 159.848 12.1642 159.292 12.1642C158.736 12.1642 158.244 12.0377 157.814 11.7847C157.384 11.5287 157.048 11.164 156.806 10.6907C156.567 10.2174 156.441 9.67419 156.429 9.06099V8.69486C156.429 8.05785 156.546 7.49674 156.779 7.01154C157.015 6.52336 157.351 6.14681 157.787 5.88189C158.225 5.61696 158.725 5.4845 159.284 5.4845C159.836 5.4845 160.329 5.61548 160.762 5.87742C161.195 6.13937 161.531 6.51295 161.77 6.99815C162.012 7.48037 162.134 8.03403 162.137 8.65913V8.9583ZM160.538 8.68593C160.538 8.03999 160.429 7.55033 160.211 7.21693C159.995 6.88057 159.686 6.71238 159.284 6.71238C158.495 6.71238 158.078 7.30177 158.033 8.48053L158.029 8.9583C158.029 9.59531 158.135 10.085 158.347 10.4273C158.559 10.7696 158.874 10.9408 159.292 10.9408C159.69 10.9408 159.995 10.7726 160.211 10.4362C160.426 10.0999 160.535 9.61614 160.538 8.98508V8.68593Z" fill="white"/>
<path d="M168.401 12.0748H166.838V9.36008H164.521V12.0748H162.948V5.57373H164.521V8.15452H166.838V5.57373H168.401V12.0748Z" fill="white"/>
<path d="M174.97 5.57373V12.0748H173.396V6.78376H171.931L171.824 8.96716C171.779 9.72027 171.674 10.3215 171.51 10.771C171.346 11.2205 171.112 11.5494 170.807 11.7578C170.505 11.9632 170.093 12.0688 169.57 12.0748H169.149V10.8693L169.369 10.8469C169.682 10.8023 169.91 10.6118 170.05 10.2754C170.19 9.93607 170.282 9.36603 170.323 8.56531L170.436 5.57373H174.97Z" fill="white"/>
<path d="M179.737 10.8603H177.582L177.205 12.0748H175.525L177.917 5.57373H179.396L181.807 12.0748H180.117L179.737 10.8603ZM177.958 9.65031H179.36L178.656 7.39547L177.958 9.65031Z" fill="white"/>
<path d="M186.112 5.57377H187.685V12.0749H186.112V7.97597L183.769 12.0749H182.196V5.57377H183.769V9.67715L186.112 5.57377ZM186.61 3.82349C186.61 4.23129 186.459 4.5617 186.157 4.81472C185.855 5.06774 185.454 5.19425 184.952 5.19425C184.451 5.19425 184.049 5.06774 183.747 4.81472C183.445 4.5617 183.294 4.23129 183.294 3.82349H184.32C184.32 4.00209 184.375 4.14199 184.486 4.24319C184.599 4.34142 184.754 4.39054 184.952 4.39054C185.149 4.39054 185.302 4.34292 185.409 4.24766C185.519 4.14943 185.575 4.00804 185.575 3.82349H186.61Z" fill="white"/>
<path d="M194.1 12.0748H192.538V9.36008H190.221V12.0748H188.648V5.57373H190.221V8.15452H192.538V5.57373H194.1V12.0748Z" fill="white"/>
<path fill-rule="evenodd" clip-rule="evenodd" d="M160.881 11.9448V11.945C160.413 12.2282 159.881 12.3675 159.292 12.3675C158.705 12.3675 158.176 12.2332 157.71 11.9597L157.709 11.9592C157.244 11.6822 156.882 11.2881 156.624 10.783L156.623 10.7821C156.369 10.2777 156.238 9.70379 156.225 9.06498L156.225 9.06301V8.69491C156.225 8.03308 156.346 7.44105 156.595 6.92388L156.595 6.9234C156.847 6.40232 157.209 5.99508 157.681 5.70843L157.681 5.70811C158.155 5.42229 158.691 5.28135 159.284 5.28135C159.87 5.28135 160.4 5.42079 160.867 5.70376C161.336 5.98715 161.698 6.39084 161.953 6.908C162.211 7.42212 162.338 8.00716 162.341 8.65822V8.65919V8.95835C162.341 9.61775 162.218 10.2099 161.967 10.7298C161.715 11.2509 161.353 11.6582 160.881 11.9448ZM161.77 6.9982C161.531 6.513 161.195 6.13942 160.762 5.87748C160.329 5.61553 159.836 5.48455 159.284 5.48455C158.725 5.48455 158.226 5.61702 157.787 5.88195C157.351 6.14687 157.015 6.52342 156.779 7.01159C156.546 7.49679 156.429 8.0579 156.429 8.69491V9.06104C156.441 9.67424 156.567 10.2175 156.806 10.6908C157.048 11.1641 157.384 11.5287 157.814 11.7848C158.244 12.0377 158.736 12.1642 159.292 12.1642C159.848 12.1642 160.342 12.0333 160.775 11.7713C161.212 11.5064 161.547 11.1298 161.784 10.6417C162.019 10.1535 162.138 9.59238 162.138 8.95835V8.65919C162.134 8.03409 162.012 7.48043 161.77 6.9982ZM160.039 7.32706V7.32618C159.862 7.04891 159.617 6.91565 159.284 6.91565C158.948 6.91565 158.713 7.0363 158.546 7.27152C158.371 7.5192 158.259 7.91428 158.237 8.48542L158.233 8.95929C158.233 9.57815 158.337 10.0241 158.52 10.3206C158.693 10.6004 158.941 10.7376 159.292 10.7376C159.619 10.7376 159.861 10.6054 160.039 10.3271C160.225 10.0369 160.331 9.59751 160.334 8.98467V8.68598C160.334 8.05718 160.227 7.61363 160.04 7.32795L160.039 7.32706ZM160.538 8.98513C160.535 9.6162 160.426 10.0999 160.211 10.4363C159.995 10.7726 159.69 10.9408 159.292 10.9408C158.874 10.9408 158.559 10.7697 158.347 10.4273C158.135 10.085 158.029 9.59536 158.029 8.95835L158.033 8.48059C158.078 7.30183 158.495 6.71244 159.284 6.71244C159.687 6.71244 159.995 6.88063 160.211 7.21699C160.429 7.55038 160.538 8.04004 160.538 8.68598V8.98513ZM168.605 12.2781H166.634V9.5634H164.725V12.2781H162.744V5.37065H164.725V7.95143H166.634V5.37065H168.605V12.2781ZM166.838 8.15464H164.521V5.57385H162.948V12.0749H164.521V9.36019H166.838V12.0749H168.401V5.57385H166.838V8.15464ZM175.174 5.37065V12.2781H173.193V6.98709H172.126L172.028 8.97724V8.97827L172.027 8.9793C171.982 9.74212 171.876 10.3653 171.702 10.8407C171.528 11.3181 171.272 11.6869 170.922 11.9255V11.9257C170.575 12.1615 170.12 12.2719 169.573 12.2781H169.572H168.945V10.6859L169.344 10.6453C169.572 10.6116 169.744 10.4783 169.862 10.1977C169.987 9.89286 170.078 9.35359 170.12 8.55635C170.12 8.55586 170.12 8.55536 170.12 8.55486L170.239 5.37065H175.174ZM170.324 8.56543C170.282 9.36615 170.19 9.93619 170.05 10.2755C169.91 10.6119 169.682 10.8024 169.369 10.8471L169.149 10.8694V12.0749H169.57C170.093 12.0689 170.505 11.9633 170.807 11.7579C171.112 11.5495 171.346 11.2206 171.51 10.7712C171.674 10.3217 171.779 9.72038 171.824 8.96728L171.931 6.78388H173.396V12.0749H174.97V5.57385H170.436L170.324 8.56543ZM180.117 12.0749L179.737 10.8605H177.582L177.205 12.0749H175.525L177.917 5.57385H179.397L181.807 12.0749H180.117ZM177.732 11.0637L177.355 12.2781H175.233L177.775 5.37065H179.538L181.992 11.99V5.37065H183.973V8.90931L185.994 5.37065H187.888V12.2781H185.908V8.74323L183.888 12.2781H179.967L179.587 11.0637H177.732ZM186.112 7.97604V12.0749H187.684V5.57385H186.112L183.769 9.67722V5.57385H182.196V12.0749H183.769L186.112 7.97604ZM179.36 9.65043L178.656 7.39559L177.958 9.65043H179.36ZM178.234 9.44722H179.084L178.657 8.08207L178.234 9.44722ZM186.814 3.62036V3.82357C186.814 4.28873 186.638 4.677 186.289 4.97027C185.941 5.26176 185.488 5.39754 184.952 5.39754C184.416 5.39754 183.963 5.26176 183.615 4.97027C183.266 4.677 183.09 4.28873 183.09 3.82357V3.62036H184.524V3.82357C184.524 3.95573 184.563 4.03646 184.622 4.0917C184.688 4.14795 184.79 4.18741 184.952 4.18741C185.117 4.18741 185.215 4.14759 185.273 4.09598C185.33 4.04561 185.371 3.96571 185.371 3.82357V3.62036H186.814ZM185.409 4.24775C185.302 4.343 185.149 4.39062 184.952 4.39062C184.754 4.39062 184.599 4.34151 184.486 4.24328C184.375 4.14207 184.32 4.00217 184.32 3.82357H183.294C183.294 3.89359 183.298 3.96132 183.308 4.02678C183.35 4.34255 183.497 4.60522 183.747 4.8148C184.049 5.06782 184.45 5.19433 184.952 5.19433C185.454 5.19433 185.855 5.06782 186.157 4.8148C186.407 4.60522 186.554 4.34255 186.597 4.02678C186.605 3.96132 186.61 3.89359 186.61 3.82357H185.575C185.575 4.00812 185.519 4.14952 185.409 4.24775ZM194.304 12.2781H192.334V9.5634H190.425V12.2781H188.444V5.37065H190.425V7.95143H192.334V5.37065H194.304V12.2781ZM192.538 8.15464H190.221V5.57385H188.648V12.0749H190.221V9.36019H192.538V12.0749H194.101V5.57385H192.538V8.15464Z" fill="white"/>
<rect opacity="0.3" x="35" width="1" height="22" fill="#0B1F35"/>
<defs>
<linearGradient id="paint0_linear" x1="186.707" y1="8.11228" x2="149.34" y2="7.7999" gradientUnits="userSpaceOnUse">
<stop stop-color="#00AFEC"/>
<stop offset="1" stop-color="#00AFEC" stop-opacity="0"/>
</linearGradient>
</defs>
</svg>
