<svg width="90" height="68" viewBox="0 0 90 68" fill="none" xmlns="http://www.w3.org/2000/svg">
<rect width="90" height="68" rx="5" fill="#F4F6FB"/>
<path d="M62.9238 11.8652H60.7696C60.4298 11.8652 60.1544 12.1406 60.1544 12.4805C60.1544 12.8203 60.4298 13.0957 60.7696 13.0957H62.9238C63.9415 13.0957 64.7695 13.9237 64.7695 14.9414V17.7715H25.2305V14.9414C25.2305 13.9237 26.0584 13.0957 27.0762 13.0957H58.0683C58.4082 13.0957 58.6836 12.8203 58.6836 12.4805C58.6836 12.1406 58.4082 11.8652 58.0683 11.8652H27.0762C25.3799 11.8652 24 13.2452 24 14.9414V21.7238C24 22.0637 24.2755 22.3391 24.6152 22.3391C24.955 22.3391 25.2305 22.0637 25.2305 21.7238V19.002H64.7695V34.864C64.7695 35.2039 65.0449 35.4792 65.3848 35.4792C65.7246 35.4792 66 35.2039 66 34.864V14.9414C66 13.2452 64.6201 11.8652 62.9238 11.8652Z" fill="#A3ACC2"/>
<path d="M65.3848 36.8434C65.0449 36.8434 64.7695 37.1188 64.7695 37.4587V39.0588C64.7695 40.0764 63.9415 40.9045 62.9238 40.9045H27.0762C26.0584 40.9045 25.2305 40.0764 25.2305 39.0588V24.3643C25.2305 24.0244 24.955 23.749 24.6152 23.749C24.2755 23.749 24 24.0244 24 24.3643V39.0588C24 40.755 25.3799 42.1349 27.0762 42.1349H62.9238C64.6201 42.1349 66 40.755 66 39.0588V37.4587C66 37.1189 65.7246 36.8434 65.3848 36.8434Z" fill="#A3ACC2"/>
<path d="M32.8988 25.2329C32.6585 24.9927 32.2689 24.9927 32.0287 25.2329L28.3316 28.93C28.2162 29.0454 28.1514 29.2019 28.1514 29.3651C28.1514 29.5283 28.2162 29.6847 28.3316 29.8002L31.9799 33.4484C32.0999 33.5685 32.2574 33.6286 32.4149 33.6286C32.5723 33.6286 32.7298 33.5685 32.8499 33.4484C33.0901 33.2081 33.0901 32.8186 32.8499 32.5783L29.6366 29.3652L32.8988 26.1031C33.1391 25.8627 33.1391 25.4732 32.8988 25.2329Z" fill="#A3ACC2"/>
<path d="M41.1725 33.4484C41.2925 33.5685 41.45 33.6286 41.6075 33.6286C41.7649 33.6286 41.9224 33.5685 42.0425 33.4484L45.6908 29.8002C45.8061 29.6848 45.8709 29.5283 45.8709 29.3651C45.8709 29.2019 45.8061 29.0455 45.6908 28.93L41.9936 25.2329C41.7533 24.9927 41.3637 24.9927 41.1236 25.2329C40.8833 25.4732 40.8833 25.8627 41.1236 26.103L44.3858 29.3651L41.1725 32.5783C40.9322 32.8187 40.9322 33.2082 41.1725 33.4484Z" fill="#A3ACC2"/>
<path d="M34.8272 35.7147C35.0753 35.7147 35.3092 35.5635 35.4025 35.3176L39.7742 23.8006C39.8948 23.4829 39.735 23.1276 39.4174 23.007C39.0998 22.8864 38.7444 23.0463 38.6239 23.3639L34.2521 34.8811C34.1315 35.1987 34.2913 35.554 34.609 35.6746C34.6808 35.7019 34.7546 35.7147 34.8272 35.7147Z" fill="#A3ACC2"/>
<path d="M26.707 15.4639C26.707 16.4815 27.535 17.3096 28.5527 17.3096C29.5705 17.3096 30.3984 16.4815 30.3984 15.4639C30.3984 14.4462 29.5705 13.6182 28.5527 13.6182C27.535 13.6182 26.707 14.4462 26.707 15.4639ZM29.168 15.4639C29.168 15.8031 28.892 16.0791 28.5527 16.0791C28.2135 16.0791 27.9375 15.8031 27.9375 15.4639C27.9375 15.1246 28.2135 14.8486 28.5527 14.8486C28.892 14.8486 29.168 15.1246 29.168 15.4639Z" fill="#A3ACC2"/>
<path d="M31.4785 15.4639C31.4785 16.4815 32.3065 17.3096 33.3242 17.3096C34.342 17.3096 35.1699 16.4815 35.1699 15.4639C35.1699 14.4462 34.342 13.6182 33.3242 13.6182C32.3065 13.6182 31.4785 14.4462 31.4785 15.4639ZM33.9395 15.4639C33.9395 15.8031 33.6635 16.0791 33.3242 16.0791C32.9849 16.0791 32.709 15.8031 32.709 15.4639C32.709 15.1246 32.9849 14.8486 33.3242 14.8486C33.6635 14.8486 33.9395 15.1246 33.9395 15.4639Z" fill="#A3ACC2"/>
<path d="M36.249 15.4639C36.249 16.4815 37.077 17.3096 38.0947 17.3096C39.1125 17.3096 39.9404 16.4815 39.9404 15.4639C39.9404 14.4462 39.1125 13.6182 38.0947 13.6182C37.077 13.6182 36.249 14.4462 36.249 15.4639ZM38.71 15.4639C38.71 15.8031 38.434 16.0791 38.0947 16.0791C37.7554 16.0791 37.4795 15.8031 37.4795 15.4639C37.4795 15.1246 37.7554 14.8486 38.0947 14.8486C38.434 14.8486 38.71 15.1246 38.71 15.4639Z" fill="#A3ACC2"/>
<path d="M51.5215 25.8818H55.377C56.3946 25.8818 57.2227 25.0538 57.2227 24.0361C57.2227 23.0185 56.3946 22.1904 55.377 22.1904H51.5215C50.5038 22.1904 49.6758 23.0185 49.6758 24.0361C49.6758 25.0538 50.5038 25.8818 51.5215 25.8818ZM51.5215 23.4209H55.377C55.7162 23.4209 55.9922 23.6969 55.9922 24.0361C55.9922 24.3754 55.7162 24.6514 55.377 24.6514H51.5215C51.1822 24.6514 50.9062 24.3754 50.9062 24.0361C50.9062 23.6969 51.1822 23.4209 51.5215 23.4209Z" fill="#A3ACC2"/>
<path d="M51.5215 30.8037H61.6934C62.711 30.8037 63.5391 29.9757 63.5391 28.958C63.5391 27.9403 62.711 27.1123 61.6934 27.1123H51.5215C50.5038 27.1123 49.6758 27.9403 49.6758 28.958C49.6758 29.9757 50.5038 30.8037 51.5215 30.8037ZM51.5215 28.3428H61.6934C62.0326 28.3428 62.3086 28.6187 62.3086 28.958C62.3086 29.2973 62.0326 29.5732 61.6934 29.5732H51.5215C51.1822 29.5732 50.9062 29.2973 50.9062 28.958C50.9062 28.6187 51.1822 28.3428 51.5215 28.3428Z" fill="#A3ACC2"/>
<path d="M51.5215 35.7256H58.6717C59.6894 35.7256 60.5174 34.8976 60.5174 33.8799C60.5174 32.8622 59.6894 32.0342 58.6717 32.0342H51.5215C50.5038 32.0342 49.6758 32.8622 49.6758 33.8799C49.6758 34.8976 50.5038 35.7256 51.5215 35.7256ZM51.5215 33.2646H58.6717C59.011 33.2646 59.287 33.5406 59.287 33.8799C59.287 34.2192 59.011 34.4951 58.6717 34.4951H51.5215C51.1822 34.4951 50.9062 34.2192 50.9062 33.8799C50.9062 33.5406 51.1822 33.2646 51.5215 33.2646Z" fill="#A3ACC2"/>
<path d="M11.9165 58H11.0683V52.2959H7.91305V58H7.0693V51.6016H11.9165V58ZM14.2083 55.4951V58H13.3646V51.6016H15.7244C16.4246 51.6016 16.9725 51.7803 17.368 52.1377C17.7664 52.4951 17.9656 52.9683 17.9656 53.5571C17.9656 54.1782 17.7708 54.6572 17.3812 54.9941C16.9944 55.3281 16.4393 55.4951 15.7156 55.4951H14.2083ZM14.2083 54.8052H15.7244C16.1756 54.8052 16.5213 54.6997 16.7615 54.4888C17.0018 54.2749 17.1219 53.9673 17.1219 53.5659C17.1219 53.1851 17.0018 52.8804 16.7615 52.6519C16.5213 52.4233 16.1917 52.3047 15.7728 52.2959H14.2083V54.8052ZM23.8742 55.0073C23.8742 55.6343 23.7687 56.1821 23.5578 56.6509C23.3468 57.1167 23.048 57.4727 22.6613 57.7188C22.2746 57.9648 21.8234 58.0879 21.3078 58.0879C20.8038 58.0879 20.3571 57.9648 19.9674 57.7188C19.5778 57.4697 19.2746 57.1167 19.0578 56.6597C18.8439 56.1997 18.734 55.668 18.7282 55.0645V54.603C18.7282 53.9878 18.8351 53.4443 19.049 52.9727C19.2628 52.501 19.5646 52.1406 19.9542 51.8916C20.3468 51.6396 20.7951 51.5137 21.299 51.5137C21.8117 51.5137 22.2628 51.6382 22.6525 51.8872C23.0451 52.1333 23.3468 52.4922 23.5578 52.9639C23.7687 53.4326 23.8742 53.979 23.8742 54.603V55.0073ZM23.0348 54.5942C23.0348 53.8354 22.8825 53.2539 22.5778 52.8496C22.2731 52.4424 21.8468 52.2388 21.299 52.2388C20.7658 52.2388 20.3454 52.4424 20.0377 52.8496C19.733 53.2539 19.5763 53.8164 19.5675 54.5371V55.0073C19.5675 55.7427 19.7213 56.3213 20.0289 56.7432C20.3395 57.1621 20.7658 57.3716 21.3078 57.3716C21.8527 57.3716 22.2746 57.1738 22.5734 56.7783C22.8722 56.3799 23.026 55.8101 23.0348 55.0688V54.5942ZM29.018 52.2959H25.9331V58H25.0849V51.6016H29.018V52.2959ZM30.8133 55.4951V58H29.9696V51.6016H32.3294C33.0296 51.6016 33.5775 51.7803 33.973 52.1377C34.3714 52.4951 34.5706 52.9683 34.5706 53.5571C34.5706 54.1782 34.3758 54.6572 33.9862 54.9941C33.5994 55.3281 33.0443 55.4951 32.3206 55.4951H30.8133ZM30.8133 54.8052H32.3294C32.7806 54.8052 33.1263 54.6997 33.3665 54.4888C33.6068 54.2749 33.7269 53.9673 33.7269 53.5659C33.7269 53.1851 33.6068 52.8804 33.3665 52.6519C33.1263 52.4233 32.7967 52.3047 32.3778 52.2959H30.8133V54.8052ZM38.484 56.3301H35.8034L35.2013 58H34.3312L36.7746 51.6016H37.5129L39.9606 58H39.0949L38.484 56.3301ZM36.0583 55.6357H38.2336L37.1437 52.6431L36.0583 55.6357ZM41.8218 51.6016L43.9136 56.8223L46.0054 51.6016H47.0996V58H46.2559V55.5083L46.335 52.8188L44.2344 58H43.5884L41.4922 52.832L41.5757 55.5083V58H40.7319V51.6016H41.8218ZM49.5892 51.6016L51.681 56.8223L53.7728 51.6016H54.867V58H54.0233V55.5083L54.1024 52.8188L52.0018 58H51.3558L49.2596 52.832L49.3431 55.5083V58H48.4994V51.6016H49.5892ZM57.1501 54.2119H58.7409C59.4089 54.2207 59.9304 54.3921 60.3054 54.7261C60.6804 55.0601 60.8679 55.5142 60.8679 56.0884C60.8679 56.6655 60.6789 57.1255 60.301 57.4683C59.923 57.811 59.4074 57.9883 58.7541 58H56.3063V51.6016H57.1501V54.2119ZM57.1501 54.9062V57.3101H58.6926C59.1115 57.3101 59.4367 57.1987 59.6681 56.9761C59.9025 56.7534 60.0197 56.4546 60.0197 56.0796C60.0197 55.7192 59.9069 55.4351 59.6813 55.2271C59.4587 55.019 59.1408 54.9121 58.7277 54.9062H57.1501ZM62.485 58H61.6413V51.6016H62.485V58ZM66.8578 55.9697C66.9398 56.4971 67.1053 56.8677 67.3544 57.0815C67.6063 57.2925 67.9667 57.3979 68.4354 57.3979C68.9422 57.3979 69.3421 57.2002 69.6351 56.8047C69.931 56.4092 70.0819 55.8599 70.0878 55.1567H67.5697V54.4624H70.0878C70.0878 53.7681 69.9354 53.2188 69.6307 52.8145C69.329 52.4102 68.9056 52.208 68.3607 52.208C67.9212 52.208 67.5785 52.3223 67.3324 52.5508C67.0892 52.7793 66.931 53.1484 66.8578 53.6582H66.0096C66.077 52.9873 66.3158 52.4629 66.7259 52.085C67.1361 51.7041 67.681 51.5137 68.3607 51.5137C68.8763 51.5137 69.329 51.6367 69.7186 51.8828C70.1112 52.126 70.4115 52.4746 70.6195 52.9287C70.8304 53.3799 70.9359 53.8999 70.9359 54.4888V55.126C70.9359 55.7148 70.8319 56.2349 70.6239 56.686C70.4159 57.1372 70.1214 57.4844 69.7406 57.7275C69.3627 57.9678 68.9276 58.0879 68.4354 58.0879C67.7381 58.0879 67.1786 57.9048 66.7567 57.5386C66.3378 57.1694 66.0887 56.6465 66.0096 55.9697H66.8578ZM72.0808 58V51.6016H74.1726C74.8669 51.6016 75.3884 51.7451 75.737 52.0322C76.0886 52.3193 76.2644 52.7441 76.2644 53.3066C76.2644 53.6055 76.1794 53.8706 76.0095 54.1021C75.8396 54.3306 75.6081 54.5078 75.3151 54.6338C75.6608 54.7305 75.9333 54.915 76.1325 55.1875C76.3347 55.457 76.4357 55.7793 76.4357 56.1543C76.4357 56.7285 76.2497 57.1797 75.8776 57.5078C75.5056 57.8359 74.9797 58 74.3 58H72.0808ZM72.9245 55.0073V57.3101H74.3176C74.7102 57.3101 75.0192 57.209 75.2448 57.0068C75.4733 56.8018 75.5876 56.5205 75.5876 56.1631C75.5876 55.3926 75.1687 55.0073 74.3308 55.0073H72.9245ZM72.9245 54.3306H74.1989C74.5681 54.3306 74.8625 54.2383 75.0822 54.0537C75.3049 53.8691 75.4162 53.6187 75.4162 53.3022C75.4162 52.9507 75.3137 52.6958 75.1086 52.5376C74.9035 52.3765 74.5915 52.2959 74.1726 52.2959H72.9245V54.3306ZM78.688 51.6016L80.7798 56.8223L82.8716 51.6016H83.9659V58H83.1221V55.5083L83.2012 52.8188L81.1006 58H80.4546L78.3584 52.832L78.4419 55.5083V58H77.5982V51.6016H78.688Z" fill="#A3ACC2"/>
</svg>
