<svg width="32" height="32" viewBox="0 0 32 32" fill="none" xmlns="http://www.w3.org/2000/svg">
<circle cx="14.5" cy="14.5" r="13.5" stroke="#BBBDC5" stroke-width="2"/>
<path d="M24 24L31 31" stroke="#BBBDC5" stroke-width="2" stroke-linecap="round"/>
<path d="M11 11L18 18" stroke="#BBBDC5" stroke-width="2" stroke-linecap="round"/>
<path d="M18 11L11 18" stroke="#BBBDC5" stroke-width="2" stroke-linecap="round"/>
</svg>
