<svg width="50" height="50" viewBox="0 0 50 50" fill="none" xmlns="http://www.w3.org/2000/svg">
<circle cx="25" cy="25" r="25" fill="#CDCFD6"/>
<path d="M25.9844 22V16.5156L31.5156 22H25.9844ZM19 15.0156C18.4375 15.0156 17.9531 15.2188 17.5469 15.625C17.1719 16 16.9844 16.4531 16.9844 16.9844V33.0156C16.9844 33.5469 17.1719 34 17.5469 34.375C17.9531 34.7812 18.4375 34.9844 19 34.9844H31C31.5625 34.9844 32.0312 34.7812 32.4062 34.375C32.8125 34 33.0156 33.5469 33.0156 33.0156V21.0156L27.0156 15.0156H19Z" fill="white"/>
</svg>
