<svg width="21" height="21" viewBox="0 0 21 21" fill="none" xmlns="http://www.w3.org/2000/svg">
<path d="M2.32812 1.5625L19.6719 18.8594L18.2188 20.3125L15.9219 18.0156H2.98438C2.45312 18.0156 1.98438 17.8281 1.57812 17.4531C1.20312 17.0469 1.01562 16.5625 1.01562 16V4C1.01562 3.75 1.0625 3.48438 1.15625 3.20312L0.21875 2.3125L1.67188 0.859375L2.32812 1.5625ZM5.60938 1.98438H19.0156C19.5469 1.98438 20 2.1875 20.375 2.59375C20.7812 2.96875 20.9844 3.4375 20.9844 4V16C20.9844 16.375 20.8906 16.7344 20.7031 17.0781L16.5781 13H19.0156V10.9844H14.6094L12.5938 9.01562H19.0156V7H10.5781L5.60938 1.98438ZM8.9375 10.9844H8V13H10.0156V12.0625L8.9375 10.9844ZM4.95312 7H4.01562V9.01562H5.98438V8.07812L4.95312 7Z" fill="#929FAB"/>
</svg>
