<svg width="60" height="60" viewBox="0 0 60 60" fill="none" xmlns="http://www.w3.org/2000/svg">
<circle cx="30" cy="30" r="30" fill="#929FAB"/>
<path d="M19 30L26 37L40 23" stroke="white" stroke-width="3" stroke-linecap="round" stroke-linejoin="round"/>
</svg>
