<svg width="170" height="160" viewBox="0 0 170 160" fill="none" xmlns="http://www.w3.org/2000/svg">
<path d="M16.7569 116.111C9.59924 100.41 8.07437 82.7215 12.4394 66.0274C16.8044 49.3334 26.7923 34.6551 40.7191 24.4673C54.6459 14.2796 71.6596 9.20568 88.8917 10.101C106.124 10.9964 122.52 17.8063 135.316 29.3825" stroke="#72CA49" stroke-width="20" stroke-linecap="round"/>
<path d="M149.555 46.8214C155.722 57.248 159.271 69.0131 159.899 81.1103C160.527 93.2076 158.216 105.277 153.163 116.286" stroke="#E6E8E5" stroke-width="20" stroke-linecap="round"/>
</svg>
